21/simulation/qsim/Isaev21.msim.vcd
$comment
	File created using the following command:
		vcd file Isaev21.msim.vcd -direction
$end
$date
	Thu Oct 06 15:38:12 2022
$end
$version
	ModelSim Version 10.1d
$end
$timescale
	1ps
$end
$scope module Isaev21_vlg_vec_tst $end
$var reg 1 ! D0 $end
$var reg 1 " D1 $end
$var reg 1 # D2 $end
$var reg 1 $ D3 $end
$var reg 1 % D4 $end
$var reg 1 & D5 $end
$var reg 1 ' D6 $end
$var reg 1 ( D7 $end
$var reg 1 ) x1 $end
$var reg 1 * x2 $end
$var reg 1 + x3 $end
$var wire 1 , F $end
$var wire 1 - sampler $end
$scope module i1 $end
$var wire 1 . gnd $end
$var wire 1 / vcc $end
$var wire 1 0 unknown $end
$var tri1 1 1 devclrn $end
$var tri1 1 2 devpor $end
$var tri1 1 3 devoe $end
$var wire 1 4 F~output_o $end
$var wire 1 5 x2~input_o $end
$var wire 1 6 D3~input_o $end
$var wire 1 7 D2~input_o $end
$var wire 1 8 D0~input_o $end
$var wire 1 9 D1~input_o $end
$var wire 1 : x3~input_o $end
$var wire 1 ; inst99~2_combout $end
$var wire 1 < inst99~3_combout $end
$var wire 1 = D5~input_o $end
$var wire 1 > D7~input_o $end
$var wire 1 ? D6~input_o $end
$var wire 1 @ D4~input_o $end
$var wire 1 A inst99~0_combout $end
$var wire 1 B inst99~1_combout $end
$var wire 1 C x1~input_o $end
$var wire 1 D inst99~4_combout $end
$upscope $end
$upscope $end
$enddefinitions $end
#0
$dumpvars
0!
1"
0#
0$
0%
0&
1'
0(
0)
0*
0+
0,
x-
0.
1/
x0
11
12
13
04
05
06
07
08
19
0:
0;
0<
0=
0>
1?
0@
0A
0B
0C
0D
$end
#10000
1+
1:
0-
1;
1<
1D
14
1,
#20000
1*
0+
15
0:
1-
1A
0<
0;
1B
0D
04
0,
#30000
1+
1:
0-
0B
1;
#40000
1)
0*
0+
1C
05
0:
1-
0A
1<
0;
1B
0B
0<
1D
14
1,
0D
04
0,
#50000
1+
1:
0-
1;
1<
#60000
1*
0+
15
0:
1-
1A
0<
0;
1B
1D
14
1,
#70000
1+
1:
0-
0B
1;
0D
04
0,
#80000
0)
0*
0+
0C
05
0:
1-
0A
1<
0;
1B
0B
0<
1D
14
1,
0D
04
0,
#90000
1+
1:
0-
1;
1<
1D
14
1,
#100000
1*
0+
15
0:
1-
1A
0<
0;
1B
0D
04
0,
#110000
1+
1:
0-
0B
1;
#120000
1)
0*
0+
1C
05
0:
1-
0A
1<
0;
1B
0B
0<
1D
14
1,
0D
04
0,
#130000
1+
1:
0-
1;
1<
#140000
1*
0+
15
0:
1-
1A
0<
0;
1B
1D
14
1,
#150000
1+
1:
0-
0B
1;
0D
04
0,
#160000
0)
0*
0+
0C
05
0:
1-
0A
1<
0;
1B
0B
0<
1D
14
1,
0D
04
0,
#170000
1+
1:
0-
1;
1<
1D
14
1,
#180000
1*
0+
15
0:
1-
1A
0<
0;
1B
0D
04
0,
#190000
1+
1:
0-
0B
1;
#200000
1)
0*
0+
1C
05
0:
1-
0A
1<
0;
1B
0B
0<
1D
14
1,
0D
04
0,
#210000
1+
1:
0-
1;
1<
#220000
1*
0+
15
0:
1-
1A
0<
0;
1B
1D
14
1,
#230000
1+
1:
0-
0B
1;
0D
04
0,
#240000
0)
0*
0+
0C
05
0:
1-
0A
1<
0;
1B
0B
0<
1D
14
1,
0D
04
0,
#250000
1+
1:
0-
1;
1<
1D
14
1,
#260000
1*
0+
15
0:
1-
1A
0<
0;
1B
0D
04
0,
#270000
1+
1:
0-
0B
1;
#280000
1)
0*
0+
1C
05
0:
1-
0A
1<
0;
1B
0B
0<
1D
14
1,
0D
04
0,
#290000
1+
1:
0-
1;
1<
#300000
1*
0+
15
0:
1-
1A
0<
0;
1B
1D
14
1,
#310000
1+
1:
0-
0B
1;
0D
04
0,
#320000
0)
0*
0+
0C
05
0:
1-
0A
1<
0;
1B
0B
0<
1D
14
1,
0D
04
0,
#330000
1+
1:
0-
1;
1<
1D
14
1,
#340000
1*
0+
15
0:
1-
1A
0<
0;
1B
0D
04
0,
#350000
1+
1:
0-
0B
1;
#360000
1)
0*
0+
1C
05
0:
1-
0A
1<
0;
1B
0B
0<
1D
14
1,
0D
04
0,
#370000
1+
1:
0-
1;
1<
#380000
1*
0+
15
0:
1-
1A
0<
0;
1B
1D
14
1,
#390000
1+
1:
0-
0B
1;
0D
04
0,
#400000
0)
0*
0+
0C
05
0:
1-
0A
1<
0;
1B
0B
0<
1D
14
1,
0D
04
0,
#410000
1+
1:
0-
1;
1<
1D
14
1,
#420000
1*
0+
15
0:
1-
1A
0<
0;
1B
0D
04
0,
#430000
1+
1:
0-
0B
1;
#440000
1)
0*
0+
1C
05
0:
1-
0A
1<
0;
1B
0B
0<
1D
14
1,
0D
04
0,
#450000
1+
1:
0-
1;
1<
#460000
1*
0+
15
0:
1-
1A
0<
0;
1B
1D
14
1,
#470000
1+
1:
0-
0B
1;
0D
04
0,
#480000
0)
0*
0+
0C
05
0:
1-
0A
1<
0;
1B
0B
0<
1D
14
1,
0D
04
0,
#490000
1+
1:
0-
1;
1<
1D
14
1,
#500000
1*
0+
15
0:
1-
1A
0<
0;
1B
0D
04
0,
#510000
1+
1:
0-
0B
1;
#520000
1)
0*
0+
1C
05
0:
1-
0A
1<
0;
1B
0B
0<
1D
14
1,
0D
04
0,
#530000
1+
1:
0-
1;
1<
#540000
1*
0+
15
0:
1-
1A
0<
0;
1B
1D
14
1,
#550000
1+
1:
0-
0B
1;
0D
04
0,
#560000
0)
0*
0+
0C
05
0:
1-
0A
1<
0;
1B
0B
0<
1D
14
1,
0D
04
0,
#570000
1+
1:
0-
1;
1<
1D
14
1,
#580000
1*
0+
15
0:
1-
1A
0<
0;
1B
0D
04
0,
#590000
1+
1:
0-
0B
1;
#600000
1)
0*
0+
1C
05
0:
1-
0A
1<
0;
1B
0B
0<
1D
14
1,
0D
04
0,
#610000
1+
1:
0-
1;
1<
#620000
1*
0+
15
0:
1-
1A
0<
0;
1B
1D
14
1,
#630000
1+
1:
0-
0B
1;
0D
04
0,
#640000
0)
0*
0+
0C
05
0:
1-
0A
1<
0;
1B
0B
0<
1D
14
1,
0D
04
0,
#650000
1+
1:
0-
1;
1<
1D
14
1,
#660000
1*
0+
15
0:
1-
1A
0<
0;
1B
0D
04
0,
#670000
1+
1:
0-
0B
1;
#680000
1)
0*
0+
1C
05
0:
1-
0A
1<
0;
1B
0B
0<
1D
14
1,
0D
04
0,
#690000
1+
1:
0-
1;
1<
#700000
1*
0+
15
0:
1-
1A
0<
0;
1B
1D
14
1,
#710000
1+
1:
0-
0B
1;
0D
04
0,
#720000
0)
0*
0+
0C
05
0:
1-
0A
1<
0;
1B
0B
0<
1D
14
1,
0D
04
0,
#730000
1+
1:
0-
1;
1<
1D
14
1,
#740000
1*
0+
15
0:
1-
1A
0<
0;
1B
0D
04
0,
#750000
1+
1:
0-
0B
1;
#760000
1)
0*
0+
1C
05
0:
1-
0A
1<
0;
1B
0B
0<
1D
14
1,
0D
04
0,
#770000
1+
1:
0-
1;
1<
#780000
1*
0+
15
0:
1-
1A
0<
0;
1B
1D
14
1,
#790000
1+
1:
0-
0B
1;
0D
04
0,
#800000
0)
0*
0+
0C
05
0:
1-
0A
1<
0;
1B
0B
0<
1D
14
1,
0D
04
0,
#810000
1+
1:
0-
1;
1<
1D
14
1,
#820000
1*
0+
15
0:
1-
1A
0<
0;
1B
0D
04
0,
#830000
1+
1:
0-
0B
1;
#840000
1)
0*
0+
1C
05
0:
1-
0A
1<
0;
1B
0B
0<
1D
14
1,
0D
04
0,
#850000
1+
1:
0-
1;
1<
#860000
1*
0+
15
0:
1-
1A
0<
0;
1B
1D
14
1,
#870000
1+
1:
0-
0B
1;
0D
04
0,
#880000
0)
0*
0+
0C
05
0:
1-
0A
1<
0;
1B
0B
0<
1D
14
1,
0D
04
0,
#890000
1+
1:
0-
1;
1<
1D
14
1,
#900000
1*
0+
15
0:
1-
1A
0<
0;
1B
0D
04
0,
#910000
1+
1:
0-
0B
1;
#920000
1)
0*
0+
1C
05
0:
1-
0A
1<
0;
1B
0B
0<
1D
14
1,
0D
04
0,
#930000
1+
1:
0-
1;
1<
#940000
1*
0+
15
0:
1-
1A
0<
0;
1B
1D
14
1,
#950000
1+
1:
0-
0B
1;
0D
04
0,
#960000
0)
0*
0+
0C
05
0:
1-
0A
1<
0;
1B
0B
0<
1D
14
1,
0D
04
0,
#970000
1+
1:
0-
1;
1<
1D
14
1,
#980000
1*
0+
15
0:
1-
1A
0<
0;
1B
0D
04
0,
#990000
1+
1:
0-
0B
1;
