32/simulation/qsim/Isaev32.msim.vcd
$comment
	File created using the following command:
		vcd file Isaev32.msim.vcd -direction
$end
$date
	Tue Nov 01 18:51:17 2022
$end
$version
	ModelSim Version 10.1d
$end
$timescale
	1ps
$end
$scope module lab4_vlg_vec_tst $end
$var reg 1 ! a $end
$var reg 1 " b $end
$var reg 1 # c $end
$var wire 1 $ out [3] $end
$var wire 1 % out [2] $end
$var wire 1 & out [1] $end
$var wire 1 ' out [0] $end
$var wire 1 ( sampler $end
$scope module i1 $end
$var wire 1 ) gnd $end
$var wire 1 * vcc $end
$var wire 1 + unknown $end
$var tri1 1 , devclrn $end
$var tri1 1 - devpor $end
$var tri1 1 . devoe $end
$var wire 1 / out[0]~output_o $end
$var wire 1 0 out[1]~output_o $end
$var wire 1 1 out[2]~output_o $end
$var wire 1 2 out[3]~output_o $end
$var wire 1 3 c~input_o $end
$var wire 1 4 c~inputclkctrl_outclk $end
$var wire 1 5 a~input_o $end
$var wire 1 6 b~input_o $end
$var wire 1 7 s8~0_combout $end
$var wire 1 8 s8~q $end
$var wire 1 9 s9~q $end
$var wire 1 : s10~q $end
$var wire 1 ; s11~0_combout $end
$var wire 1 < s11~q $end
$var wire 1 = s12~0_combout $end
$var wire 1 > s12~q $end
$var wire 1 ? s3~q $end
$var wire 1 @ s4~0_combout $end
$var wire 1 A s4~q $end
$var wire 1 B s5~0_combout $end
$var wire 1 C s5~q $end
$var wire 1 D s6~0_combout $end
$var wire 1 E s6~q $end
$var wire 1 F s7~0_combout $end
$var wire 1 G s7~q $end
$var wire 1 H s13~q $end
$var wire 1 I s14~q $end
$var wire 1 J s15~q $end
$var wire 1 K s0~0_combout $end
$var wire 1 L s0~q $end
$var wire 1 M s1~0_combout $end
$var wire 1 N s1~q $end
$var wire 1 O s2~0_combout $end
$var wire 1 P s2~q $end
$var wire 1 Q out[3]~1_combout $end
$var wire 1 R out[0]~0_combout $end
$var wire 1 S out[0]~2_combout $end
$var wire 1 T out[2]~4_combout $end
$var wire 1 U out[1]~3_combout $end
$var wire 1 V out[1]~5_combout $end
$var wire 1 W out[2]~6_combout $end
$var wire 1 X out[2]~7_combout $end
$var wire 1 Y out[3]~8_combout $end
$var wire 1 Z out[3]~9_combout $end
$upscope $end
$upscope $end
$enddefinitions $end
#0
$dumpvars
1!
1"
0#
1'
0&
1%
1$
x(
0)
1*
x+
1,
1-
1.
1/
00
11
12
03
04
15
16
07
08
09
0:
0;
0<
0=
0>
0?
0@
0A
0B
0C
0D
0E
0F
0G
0H
0I
0J
1K
0L
1M
0N
0O
0P
0Q
0R
1S
1T
0U
0V
1W
1X
0Y
1Z
$end
#10000
1#
13
14
0(
1N
1L
1Y
1U
1O
0W
1Q
0M
1V
0X
0S
10
01
0/
1&
0%
0'
#20000
0#
03
04
1(
#30000
1#
13
14
0(
1P
0N
0T
0Q
0Y
0U
0O
1X
1S
11
1/
1%
1'
#40000
0#
03
04
1(
#50000
1#
13
14
0(
0P
1?
1T
1Q
1W
1R
1B
0V
0Z
00
02
0&
0$
#60000
0#
03
04
1(
#70000
1#
13
14
0(
1C
0?
1U
1D
0W
0B
1V
0X
10
01
1&
0%
#80000
0#
03
04
1(
#90000
1#
13
14
0(
1E
0C
0Q
1F
0R
0D
1Z
12
1$
#100000
0#
03
04
1(
#110000
1#
13
14
0(
1G
0E
1Y
1W
0U
1Q
0F
1X
0V
0S
11
00
0/
1%
0&
0'
#120000
0#
03
04
1(
#130000
1#
13
14
0(
1H
0G
0T
1R
0Y
0W
1V
1S
0Z
10
1/
02
1&
1'
0$
#140000
0#
03
04
1(
#150000
1#
13
14
0(
1I
0H
0R
0S
0/
0'
#160000
0#
03
04
1(
#170000
1#
13
14
0(
1J
0I
1W
0K
1T
0V
00
0&
#180000
0#
03
04
1(
#190000
1#
13
14
0(
0L
0J
0Q
1M
1K
1Z
1S
12
1/
1$
1'
#200000
0#
03
04
1(
#210000
1#
13
14
0(
1N
1L
1Y
1U
1O
0W
1Q
0M
1V
0X
0S
10
01
0/
1&
0%
0'
#220000
0#
03
04
1(
#230000
1#
13
14
0(
1P
0N
0T
0Q
0Y
0U
0O
1X
1S
11
1/
1%
1'
#240000
0#
03
04
1(
#250000
1#
13
14
0(
0P
1?
1T
1Q
1W
1R
1B
0V
0Z
00
02
0&
0$
#260000
0#
03
04
1(
#270000
1#
13
14
0(
1C
0?
1U
1D
0W
0B
1V
0X
10
01
1&
0%
#280000
0#
03
04
1(
#290000
1#
13
14
0(
1E
0C
0Q
1F
0R
0D
1Z
12
1$
#300000
0#
03
04
1(
#310000
1#
13
14
0(
1G
0E
1Y
1W
0U
1Q
0F
1X
0V
0S
11
00
0/
1%
0&
0'
#320000
0#
03
04
1(
#330000
1#
13
14
0(
1H
0G
0T
1R
0Y
0W
1V
1S
0Z
10
1/
02
1&
1'
0$
#340000
0#
03
04
1(
#350000
1#
13
14
0(
1I
0H
0R
0S
0/
0'
#360000
0#
03
04
1(
#370000
1#
13
14
0(
1J
0I
1W
0K
1T
0V
00
0&
#380000
0#
03
04
1(
#390000
1#
13
14
0(
0L
0J
0Q
1M
1K
1Z
1S
12
1/
1$
1'
#400000
0#
03
04
1(
#410000
1#
13
14
0(
1N
1L
1Y
1U
1O
0W
1Q
0M
1V
0X
0S
10
01
0/
1&
0%
0'
#420000
0#
03
04
1(
#430000
1#
13
14
0(
1P
0N
0T
0Q
0Y
0U
0O
1X
1S
11
1/
1%
1'
#440000
0#
03
04
1(
#450000
1#
13
14
0(
0P
1?
1T
1Q
1W
1R
1B
0V
0Z
00
02
0&
0$
#460000
0#
03
04
1(
#470000
1#
13
14
0(
1C
0?
1U
1D
0W
0B
1V
0X
10
01
1&
0%
#480000
0#
03
04
1(
#490000
1#
13
14
0(
1E
0C
0Q
1F
0R
0D
1Z
12
1$
#500000
0#
03
04
1(
#510000
1#
13
14
0(
1G
0E
1Y
1W
0U
1Q
0F
1X
0V
0S
11
00
0/
1%
0&
0'
#520000
0#
03
04
1(
#530000
1#
13
14
0(
1H
0G
0T
1R
0Y
0W
1V
1S
0Z
10
1/
02
1&
1'
0$
#540000
0#
03
04
1(
#550000
1#
13
14
0(
1I
0H
0R
0S
0/
0'
#560000
0#
03
04
1(
#570000
1#
13
14
0(
1J
0I
1W
0K
1T
0V
00
0&
#580000
0#
03
04
1(
#590000
1#
13
14
0(
0L
0J
0Q
1M
1K
1Z
1S
12
1/
1$
1'
#600000
0#
03
04
1(
#610000
1#
13
14
0(
1N
1L
1Y
1U
1O
0W
1Q
0M
1V
0X
0S
10
01
0/
1&
0%
0'
#620000
0#
03
04
1(
#630000
1#
13
14
0(
1P
0N
0T
0Q
0Y
0U
0O
1X
1S
11
1/
1%
1'
#640000
0#
03
04
1(
#650000
1#
13
14
0(
0P
1?
1T
1Q
1W
1R
1B
0V
0Z
00
02
0&
0$
#660000
0#
03
04
1(
#670000
1#
13
14
0(
1C
0?
1U
1D
0W
0B
1V
0X
10
01
1&
0%
#680000
0#
03
04
1(
#690000
1#
13
14
0(
1E
0C
0Q
1F
0R
0D
1Z
12
1$
#700000
0#
03
04
1(
#710000
1#
13
14
0(
1G
0E
1Y
1W
0U
1Q
0F
1X
0V
0S
11
00
0/
1%
0&
0'
#720000
0#
03
04
1(
#730000
1#
13
14
0(
1H
0G
0T
1R
0Y
0W
1V
1S
0Z
10
1/
02
1&
1'
0$
#740000
0#
03
04
1(
#750000
1#
13
14
0(
1I
0H
0R
0S
0/
0'
#760000
0#
03
04
1(
#770000
1#
13
14
0(
1J
0I
1W
0K
1T
0V
00
0&
#780000
0#
03
04
1(
#790000
1#
13
14
0(
0L
0J
0Q
1M
1K
1Z
1S
12
1/
1$
1'
#800000
0#
03
04
1(
#810000
1#
13
14
0(
1N
1L
1Y
1U
1O
0W
1Q
0M
1V
0X
0S
10
01
0/
1&
0%
0'
#820000
0#
03
04
1(
#830000
1#
13
14
0(
1P
0N
0T
0Q
0Y
0U
0O
1X
1S
11
1/
1%
1'
#840000
0#
03
04
1(
#850000
1#
13
14
0(
0P
1?
1T
1Q
1W
1R
1B
0V
0Z
00
02
0&
0$
#860000
0#
03
04
1(
#870000
1#
13
14
0(
1C
0?
1U
1D
0W
0B
1V
0X
10
01
1&
0%
#880000
0#
03
04
1(
#890000
1#
13
14
0(
1E
0C
0Q
1F
0R
0D
1Z
12
1$
#900000
0#
03
04
1(
#910000
1#
13
14
0(
1G
0E
1Y
1W
0U
1Q
0F
1X
0V
0S
11
00
0/
1%
0&
0'
#920000
0#
03
04
1(
#930000
1#
13
14
0(
1H
0G
0T
1R
0Y
0W
1V
1S
0Z
10
1/
02
1&
1'
0$
#940000
0#
03
04
1(
#950000
1#
13
14
0(
1I
0H
0R
0S
0/
0'
#960000
0#
03
04
1(
#970000
1#
13
14
0(
1J
0I
1W
0K
1T
0V
00
0&
#980000
0#
03
04
1(
#990000
1#
13
14
0(
0L
0J
0Q
1M
1K
1Z
1S
12
1/
1$
1'
