23/simulation/qsim/Isaev23.msim.vcd
$comment
	File created using the following command:
		vcd file Isaev23.msim.vcd -direction
$end
$date
	Thu Oct 06 19:27:14 2022
$end
$version
	ModelSim Version 10.1d
$end
$timescale
	1ps
$end
$scope module Isaev23_vlg_vec_tst $end
$var reg 1 ! D0 $end
$var reg 1 " D1 $end
$var reg 1 # D2 $end
$var reg 1 $ D3 $end
$var reg 1 % D4 $end
$var reg 1 & D5 $end
$var reg 1 ' D6 $end
$var reg 1 ( D7 $end
$var reg 3 ) x [2:0] $end
$var wire 1 * F $end
$var wire 1 + sampler $end
$scope module i1 $end
$var wire 1 , gnd $end
$var wire 1 - vcc $end
$var wire 1 . unknown $end
$var tri1 1 / devclrn $end
$var tri1 1 0 devpor $end
$var tri1 1 1 devoe $end
$var wire 1 2 F~output_o $end
$var wire 1 3 x[0]~input_o $end
$var wire 1 4 D4~input_o $end
$var wire 1 5 D6~input_o $end
$var wire 1 6 D7~input_o $end
$var wire 1 7 D5~input_o $end
$var wire 1 8 x[1]~input_o $end
$var wire 1 9 inst|LPM_MUX_component|auto_generated|_~2_combout $end
$var wire 1 : inst|LPM_MUX_component|auto_generated|_~3_combout $end
$var wire 1 ; D1~input_o $end
$var wire 1 < D0~input_o $end
$var wire 1 = D2~input_o $end
$var wire 1 > D3~input_o $end
$var wire 1 ? inst|LPM_MUX_component|auto_generated|_~0_combout $end
$var wire 1 @ inst|LPM_MUX_component|auto_generated|_~1_combout $end
$var wire 1 A x[2]~input_o $end
$var wire 1 B inst|LPM_MUX_component|auto_generated|_~4_combout $end
$upscope $end
$upscope $end
$enddefinitions $end
#0
$dumpvars
0!
1"
0#
0$
0%
0&
1'
0(
b0 )
0*
x+
0,
1-
x.
1/
10
11
02
03
04
15
06
07
08
09
0:
1;
0<
0=
0>
0?
0@
0A
0B
$end
#10000
b1 )
13
0+
1:
1B
12
1*
#20000
b11 )
b10 )
03
18
1+
0:
1@
0B
02
0*
#30000
b11 )
13
0+
1?
1:
19
0@
0:
1B
12
1*
0B
02
0*
#40000
b111 )
b101 )
b100 )
03
08
1A
1+
0?
1:
09
1@
0@
0:
1B
12
1*
0B
02
0*
#50000
b101 )
13
0+
1:
#60000
b111 )
b110 )
03
18
1+
0:
1@
1B
12
1*
#70000
b111 )
13
0+
1?
1:
19
0@
0:
0B
02
0*
#80000
b11 )
b1 )
b0 )
03
08
0A
1+
0?
1:
09
1@
0@
0:
1B
12
1*
0B
02
0*
#90000
b1 )
13
0+
1:
1B
12
1*
#100000
b11 )
b10 )
03
18
1+
0:
1@
0B
02
0*
#110000
b11 )
13
0+
1?
1:
19
0@
0:
1B
12
1*
0B
02
0*
#120000
b111 )
b101 )
b100 )
03
08
1A
1+
0?
1:
09
1@
0@
0:
1B
12
1*
0B
02
0*
#130000
b101 )
13
0+
1:
#140000
b111 )
b110 )
03
18
1+
0:
1@
1B
12
1*
#150000
b111 )
13
0+
1?
1:
19
0@
0:
0B
02
0*
#160000
b11 )
b1 )
b0 )
03
08
0A
1+
0?
1:
09
1@
0@
0:
1B
12
1*
0B
02
0*
#170000
b1 )
13
0+
1:
1B
12
1*
#180000
b11 )
b10 )
03
18
1+
0:
1@
0B
02
0*
#190000
b11 )
13
0+
1?
1:
19
0@
0:
1B
12
1*
0B
02
0*
#200000
b111 )
b101 )
b100 )
03
08
1A
1+
0?
1:
09
1@
0@
0:
1B
12
1*
0B
02
0*
#210000
b101 )
13
0+
1:
#220000
b111 )
b110 )
03
18
1+
0:
1@
1B
12
1*
#230000
b111 )
13
0+
1?
1:
19
0@
0:
0B
02
0*
#240000
b11 )
b1 )
b0 )
03
08
0A
1+
0?
1:
09
1@
0@
0:
1B
12
1*
0B
02
0*
#250000
b1 )
13
0+
1:
1B
12
1*
#260000
b11 )
b10 )
03
18
1+
0:
1@
0B
02
0*
#270000
b11 )
13
0+
1?
1:
19
0@
0:
1B
12
1*
0B
02
0*
#280000
b111 )
b101 )
b100 )
03
08
1A
1+
0?
1:
09
1@
0@
0:
1B
12
1*
0B
02
0*
#290000
b101 )
13
0+
1:
#300000
b111 )
b110 )
03
18
1+
0:
1@
1B
12
1*
#310000
b111 )
13
0+
1?
1:
19
0@
0:
0B
02
0*
#320000
b11 )
b1 )
b0 )
03
08
0A
1+
0?
1:
09
1@
0@
0:
1B
12
1*
0B
02
0*
#330000
b1 )
13
0+
1:
1B
12
1*
#340000
b11 )
b10 )
03
18
1+
0:
1@
0B
02
0*
#350000
b11 )
13
0+
1?
1:
19
0@
0:
1B
12
1*
0B
02
0*
#360000
b111 )
b101 )
b100 )
03
08
1A
1+
0?
1:
09
1@
0@
0:
1B
12
1*
0B
02
0*
#370000
b101 )
13
0+
1:
#380000
b111 )
b110 )
03
18
1+
0:
1@
1B
12
1*
#390000
b111 )
13
0+
1?
1:
19
0@
0:
0B
02
0*
#400000
b11 )
b1 )
b0 )
03
08
0A
1+
0?
1:
09
1@
0@
0:
1B
12
1*
0B
02
0*
#410000
b1 )
13
0+
1:
1B
12
1*
#420000
b11 )
b10 )
03
18
1+
0:
1@
0B
02
0*
#430000
b11 )
13
0+
1?
1:
19
0@
0:
1B
12
1*
0B
02
0*
#440000
b111 )
b101 )
b100 )
03
08
1A
1+
0?
1:
09
1@
0@
0:
1B
12
1*
0B
02
0*
#450000
b101 )
13
0+
1:
#460000
b111 )
b110 )
03
18
1+
0:
1@
1B
12
1*
#470000
b111 )
13
0+
1?
1:
19
0@
0:
0B
02
0*
#480000
b11 )
b1 )
b0 )
03
08
0A
1+
0?
1:
09
1@
0@
0:
1B
12
1*
0B
02
0*
#490000
b1 )
13
0+
1:
1B
12
1*
#500000
b11 )
b10 )
03
18
1+
0:
1@
0B
02
0*
#510000
b11 )
13
0+
1?
1:
19
0@
0:
1B
12
1*
0B
02
0*
#520000
b111 )
b101 )
b100 )
03
08
1A
1+
0?
1:
09
1@
0@
0:
1B
12
1*
0B
02
0*
#530000
b101 )
13
0+
1:
#540000
b111 )
b110 )
03
18
1+
0:
1@
1B
12
1*
#550000
b111 )
13
0+
1?
1:
19
0@
0:
0B
02
0*
#560000
b11 )
b1 )
b0 )
03
08
0A
1+
0?
1:
09
1@
0@
0:
1B
12
1*
0B
02
0*
#570000
b1 )
13
0+
1:
1B
12
1*
#580000
b11 )
b10 )
03
18
1+
0:
1@
0B
02
0*
#590000
b11 )
13
0+
1?
1:
19
0@
0:
1B
12
1*
0B
02
0*
#600000
b111 )
b101 )
b100 )
03
08
1A
1+
0?
1:
09
1@
0@
0:
1B
12
1*
0B
02
0*
#610000
b101 )
13
0+
1:
#620000
b111 )
b110 )
03
18
1+
0:
1@
1B
12
1*
#630000
b111 )
13
0+
1?
1:
19
0@
0:
0B
02
0*
#640000
b11 )
b1 )
b0 )
03
08
0A
1+
0?
1:
09
1@
0@
0:
1B
12
1*
0B
02
0*
#650000
b1 )
13
0+
1:
1B
12
1*
#660000
b11 )
b10 )
03
18
1+
0:
1@
0B
02
0*
#670000
b11 )
13
0+
1?
1:
19
0@
0:
1B
12
1*
0B
02
0*
#680000
b111 )
b101 )
b100 )
03
08
1A
1+
0?
1:
09
1@
0@
0:
1B
12
1*
0B
02
0*
#690000
b101 )
13
0+
1:
#700000
b111 )
b110 )
03
18
1+
0:
1@
1B
12
1*
#710000
b111 )
13
0+
1?
1:
19
0@
0:
0B
02
0*
#720000
b11 )
b1 )
b0 )
03
08
0A
1+
0?
1:
09
1@
0@
0:
1B
12
1*
0B
02
0*
#730000
b1 )
13
0+
1:
1B
12
1*
#740000
b11 )
b10 )
03
18
1+
0:
1@
0B
02
0*
#750000
b11 )
13
0+
1?
1:
19
0@
0:
1B
12
1*
0B
02
0*
#760000
b111 )
b101 )
b100 )
03
08
1A
1+
0?
1:
09
1@
0@
0:
1B
12
1*
0B
02
0*
#770000
b101 )
13
0+
1:
#780000
b111 )
b110 )
03
18
1+
0:
1@
1B
12
1*
#790000
b111 )
13
0+
1?
1:
19
0@
0:
0B
02
0*
#800000
b11 )
b1 )
b0 )
03
08
0A
1+
0?
1:
09
1@
0@
0:
1B
12
1*
0B
02
0*
#810000
b1 )
13
0+
1:
1B
12
1*
#820000
b11 )
b10 )
03
18
1+
0:
1@
0B
02
0*
#830000
b11 )
13
0+
1?
1:
19
0@
0:
1B
12
1*
0B
02
0*
#840000
b111 )
b101 )
b100 )
03
08
1A
1+
0?
1:
09
1@
0@
0:
1B
12
1*
0B
02
0*
#850000
b101 )
13
0+
1:
#860000
b111 )
b110 )
03
18
1+
0:
1@
1B
12
1*
#870000
b111 )
13
0+
1?
1:
19
0@
0:
0B
02
0*
#880000
b11 )
b1 )
b0 )
03
08
0A
1+
0?
1:
09
1@
0@
0:
1B
12
1*
0B
02
0*
#890000
b1 )
13
0+
1:
1B
12
1*
#900000
b11 )
b10 )
03
18
1+
0:
1@
0B
02
0*
#910000
b11 )
13
0+
1?
1:
19
0@
0:
1B
12
1*
0B
02
0*
#920000
b111 )
b101 )
b100 )
03
08
1A
1+
0?
1:
09
1@
0@
0:
1B
12
1*
0B
02
0*
#930000
b101 )
13
0+
1:
#940000
b111 )
b110 )
03
18
1+
0:
1@
1B
12
1*
#950000
b111 )
13
0+
1?
1:
19
0@
0:
0B
02
0*
#960000
b11 )
b1 )
b0 )
03
08
0A
1+
0?
1:
09
1@
0@
0:
1B
12
1*
0B
02
0*
#970000
b1 )
13
0+
1:
1B
12
1*
#980000
b11 )
b10 )
03
18
1+
0:
1@
0B
02
0*
#990000
b11 )
13
0+
1?
1:
19
0@
0:
1B
12
1*
0B
02
0*
