311/simulation/qsim/lab311.msim.vcd
$comment
	File created using the following command:
		vcd file lab311.msim.vcd -direction
$end
$date
	Thu Oct 27 15:38:29 2022
$end
$version
	ModelSim Version 10.1d
$end
$timescale
	1ps
$end
$scope module lab311_vlg_vec_tst $end
$var reg 1 ! a $end
$var reg 1 " b $end
$var reg 1 # clock $end
$var wire 1 $ q [3] $end
$var wire 1 % q [2] $end
$var wire 1 & q [1] $end
$var wire 1 ' q [0] $end
$var wire 1 ( sampler $end
$scope module i1 $end
$var wire 1 ) gnd $end
$var wire 1 * vcc $end
$var wire 1 + unknown $end
$var tri1 1 , devclrn $end
$var tri1 1 - devpor $end
$var tri1 1 . devoe $end
$var wire 1 / q[3]~output_o $end
$var wire 1 0 q[2]~output_o $end
$var wire 1 1 q[1]~output_o $end
$var wire 1 2 q[0]~output_o $end
$var wire 1 3 clock~input_o $end
$var wire 1 4 clock~inputclkctrl_outclk $end
$var wire 1 5 a~input_o $end
$var wire 1 6 b~input_o $end
$var wire 1 7 inst5~4_combout $end
$var wire 1 8 inst5~5_combout $end
$var wire 1 9 inst28~q $end
$var wire 1 : inst4~6_combout $end
$var wire 1 ; inst4~7_combout $end
$var wire 1 < inst4~4_combout $end
$var wire 1 = inst4~3_combout $end
$var wire 1 > inst4~8_combout $end
$var wire 1 ? inst4~9_combout $end
$var wire 1 @ inst26~q $end
$var wire 1 A inst1~6_combout $end
$var wire 1 B inst1~7_combout $end
$var wire 1 C inst1~4_combout $end
$var wire 1 D inst1~3_combout $end
$var wire 1 E inst1~8_combout $end
$var wire 1 F inst1~9_combout $end
$var wire 1 G inst24~q $end
$var wire 1 H inst35~4_combout $end
$var wire 1 I inst35~5_combout $end
$var wire 1 J inst22~q $end
$upscope $end
$upscope $end
$enddefinitions $end
#0
$dumpvars
1!
1"
0#
0'
0&
0%
0$
x(
0)
1*
x+
1,
1-
1.
0/
00
01
02
03
04
15
16
17
18
09
1:
1;
1<
1=
1>
1?
0@
0A
0B
0C
0D
1E
0F
0G
1H
1I
0J
$end
#10000
1#
13
14
0(
1J
1@
19
1D
1C
1B
1A
0=
0<
0;
0:
08
1/
11
12
1$
1&
1'
1F
0?
#20000
0#
03
04
1(
#30000
1#
13
14
0(
1G
0@
09
0H
1=
1<
1;
1:
18
07
10
01
02
1%
0&
0'
0I
1?
#40000
0#
03
04
1(
#50000
1#
13
14
0(
0J
1@
19
08
0/
11
12
0$
1&
1'
#60000
0#
03
04
1(
#70000
1#
13
14
0(
09
0=
0<
0;
0:
02
0'
0?
#80000
0#
03
04
1(
#90000
1#
13
14
0(
0@
1H
18
17
01
0&
1I
#100000
0#
03
04
1(
#110000
1#
13
14
0(
1J
19
0H
0D
0C
0B
0A
1=
1<
1;
1:
07
0I
1/
12
1$
1'
1I
0F
1?
08
#120000
0#
03
04
1(
#130000
1#
13
14
0(
0G
1@
09
0I
1H
1B
1A
0=
0<
17
00
11
02
0%
1&
0'
1I
1F
18
#140000
0#
03
04
1(
#150000
1#
13
14
0(
1G
19
0I
1D
1C
0;
0:
10
12
1%
1'
0?
#160000
0!
0#
05
03
04
1(
1?
0>
0?
#170000
1#
13
14
0(
0J
0@
0D
0C
0B
0A
1<
1;
0/
01
0$
0&
0E
1>
0F
1?
#180000
0#
03
04
1(
#190000
1#
13
14
0(
0G
1@
1I
1=
1:
08
07
00
11
0%
1&
18
#200000
0#
03
04
1(
#210000
1#
13
14
0(
1J
0H
1D
1C
1B
1A
0=
0<
0;
0:
17
1/
1$
1E
0>
08
1F
0?
#220000
0#
03
04
1(
#230000
1#
13
14
0(
1G
0@
09
0I
1=
1<
1;
1:
18
07
10
01
02
1%
0&
0'
1>
1?
#240000
0#
03
04
1(
#250000
1#
13
14
0(
0J
1@
19
08
0/
11
12
0$
1&
1'
#260000
0#
03
04
1(
#270000
1#
13
14
0(
09
0=
0<
0;
0:
02
0'
0>
0?
#280000
0#
03
04
1(
#290000
1#
13
14
0(
0@
1H
18
17
01
0&
1I
#300000
0#
03
04
1(
#310000
1#
13
14
0(
1J
19
0H
0D
0C
0B
0A
1=
1<
1;
1:
07
0I
1/
12
1$
1'
1I
0E
1>
08
0F
1?
#320000
0"
1!
0#
06
15
03
04
1(
0>
#330000
1#
13
14
0(
0G
1@
09
0I
1H
1B
1A
0=
0<
17
00
11
02
0%
1&
0'
1I
1F
18
#340000
0#
03
04
1(
#350000
1#
13
14
0(
1G
19
0I
1D
1C
0;
0:
10
12
1%
1'
0?
#360000
0#
03
04
1(
#370000
1#
13
14
0(
0J
0@
0D
0C
0B
0A
1<
1;
07
0/
01
0$
0&
0F
08
#380000
0#
03
04
1(
#390000
1#
13
14
0(
0G
09
1I
1=
1:
17
00
02
0%
0'
1?
18
#400000
0#
03
04
1(
#410000
1#
13
14
0(
1J
1@
19
1D
1C
1B
1A
0=
0<
0;
0:
08
1/
11
12
1$
1&
1'
1F
0?
#420000
0#
03
04
1(
#430000
1#
13
14
0(
1G
0@
09
0H
1=
1<
1;
1:
18
07
10
01
02
1%
0&
0'
0I
1?
#440000
0#
03
04
1(
#450000
1#
13
14
0(
0J
1@
19
08
0/
11
12
0$
1&
1'
#460000
0#
03
04
1(
#470000
1#
13
14
0(
09
0=
0<
0;
0:
02
0'
0?
#480000
0!
0#
05
03
04
1(
0F
1E
1F
#490000
1#
13
14
0(
0@
1H
18
01
0&
1I
#500000
0#
03
04
1(
#510000
1#
13
14
0(
1J
19
0H
0D
0C
0B
0A
1=
1<
1;
1:
0I
08
1/
12
1$
1'
1I
0E
1>
0F
1?
#520000
0#
03
04
1(
#530000
1#
13
14
0(
0G
1@
09
0I
1B
1A
0=
0<
17
00
11
02
0%
1&
0'
0>
18
0?
#540000
0#
03
04
1(
#550000
1#
13
14
0(
0J
0@
19
1H
0B
0A
0;
0:
0/
01
12
0$
0&
1'
1I
#560000
0#
03
04
1(
#570000
1#
13
14
0(
1J
0H
1=
1<
1;
1:
07
1/
1$
0I
1>
08
1?
#580000
0#
03
04
1(
#590000
1#
13
14
0(
0J
1@
09
1H
1C
1B
0=
0:
0/
11
02
0$
1&
0'
1I
0>
0?
#600000
0#
03
04
1(
#610000
1#
13
14
0(
1J
0@
0H
1D
1A
0<
0;
1/
01
1$
0&
1E
1F
#620000
0#
03
04
1(
#630000
1#
13
14
0(
1G
0I
1=
1<
1;
1:
18
10
1%
1>
1?
#640000
1"
1!
0#
16
15
03
04
1(
#650000
1#
13
14
0(
0J
1@
19
08
0/
11
12
0$
1&
1'
#660000
0#
03
04
1(
#670000
1#
13
14
0(
09
0=
0<
0;
0:
02
0'
0?
#680000
0#
03
04
1(
#690000
1#
13
14
0(
0@
1H
18
17
01
0&
1I
#700000
0#
03
04
1(
#710000
1#
13
14
0(
1J
19
0H
0D
0C
0B
0A
1=
1<
1;
1:
07
0I
1/
12
1$
1'
1I
0F
1?
08
#720000
0#
03
04
1(
#730000
1#
13
14
0(
0G
1@
09
0I
1H
1B
1A
0=
0<
17
00
11
02
0%
1&
0'
1I
1F
18
#740000
0#
03
04
1(
#750000
1#
13
14
0(
1G
19
0I
1D
1C
0;
0:
10
12
1%
1'
0?
#760000
0#
03
04
1(
#770000
1#
13
14
0(
0J
0@
0D
0C
0B
0A
1<
1;
0/
01
0$
0&
0F
1?
#780000
0#
03
04
1(
#790000
1#
13
14
0(
0G
1@
1I
1=
1:
08
07
00
11
0%
1&
18
#800000
0!
0#
05
03
04
1(
1F
0E
0F
#810000
1#
13
14
0(
1J
0H
1D
1C
1B
1A
0=
0<
0;
0:
17
1/
1$
1E
0>
08
1F
0?
#820000
0#
03
04
1(
#830000
1#
13
14
0(
1G
0@
09
0I
1=
1<
1;
1:
18
07
10
01
02
1%
0&
0'
1>
1?
#840000
0#
03
04
1(
#850000
1#
13
14
0(
0J
1@
19
08
0/
11
12
0$
1&
1'
#860000
0#
03
04
1(
#870000
1#
13
14
0(
09
0=
0<
0;
0:
02
0'
0>
0?
#880000
0#
03
04
1(
#890000
1#
13
14
0(
0@
1H
18
17
01
0&
1I
#900000
0#
03
04
1(
#910000
1#
13
14
0(
1J
19
0H
0D
0C
0B
0A
1=
1<
1;
1:
07
0I
1/
12
1$
1'
1I
0E
1>
08
0F
1?
#920000
0#
03
04
1(
#930000
1#
13
14
0(
0G
1@
09
0I
1B
1A
0=
0<
17
00
11
02
0%
1&
0'
0>
18
0?
#940000
0#
03
04
1(
#950000
1#
13
14
0(
0J
0@
19
1H
0B
0A
0;
0:
0/
01
12
0$
0&
1'
1I
#960000
0"
1!
0#
06
15
03
04
1(
#970000
1#
13
14
0(
1J
0H
1=
1<
1;
1:
07
1/
1$
0I
1?
08
#980000
0#
03
04
1(
#990000
1#
13
14
0(
0J
1@
09
1H
1C
1B
0=
0:
0/
11
02
0$
1&
0'
1I
0?
