22/simulation/qsim/Isaev22.msim.vcd
$comment
	File created using the following command:
		vcd file Isaev22.msim.vcd -direction
$end
$date
	Thu Oct 06 18:39:34 2022
$end
$version
	ModelSim Version 10.1d
$end
$timescale
	1ps
$end
$scope module Isaev22_vlg_vec_tst $end
$var reg 1 ! D0 $end
$var reg 1 " D1 $end
$var reg 1 # D2 $end
$var reg 1 $ D3 $end
$var reg 1 % D4 $end
$var reg 1 & D5 $end
$var reg 1 ' D6 $end
$var reg 1 ( D7 $end
$var reg 1 ) X0 $end
$var reg 1 * X1 $end
$var reg 1 + X2 $end
$var wire 1 , A0 $end
$var wire 1 - A1 $end
$var wire 1 . A2 $end
$var wire 1 / A3 $end
$var wire 1 0 A4 $end
$var wire 1 1 A5 $end
$var wire 1 2 A6 $end
$var wire 1 3 A7 $end
$var wire 1 4 F $end
$var wire 1 5 Y0 $end
$var wire 1 6 Y1 $end
$var wire 1 7 Y2 $end
$var wire 1 8 Y3 $end
$var wire 1 9 Y4 $end
$var wire 1 : Y5 $end
$var wire 1 ; Y6 $end
$var wire 1 < Y7 $end
$var wire 1 = sampler $end
$scope module i1 $end
$var wire 1 > gnd $end
$var wire 1 ? vcc $end
$var wire 1 @ unknown $end
$var tri1 1 A devclrn $end
$var tri1 1 B devpor $end
$var tri1 1 C devoe $end
$var wire 1 D F~output_o $end
$var wire 1 E Y0~output_o $end
$var wire 1 F Y1~output_o $end
$var wire 1 G Y2~output_o $end
$var wire 1 H Y3~output_o $end
$var wire 1 I Y4~output_o $end
$var wire 1 J Y5~output_o $end
$var wire 1 K Y6~output_o $end
$var wire 1 L Y7~output_o $end
$var wire 1 M A0~output_o $end
$var wire 1 N A1~output_o $end
$var wire 1 O A2~output_o $end
$var wire 1 P A3~output_o $end
$var wire 1 Q A4~output_o $end
$var wire 1 R A5~output_o $end
$var wire 1 S A6~output_o $end
$var wire 1 T A7~output_o $end
$var wire 1 U D2~input_o $end
$var wire 1 V X1~input_o $end
$var wire 1 W X2~input_o $end
$var wire 1 X X0~input_o $end
$var wire 1 Y A2~0_combout $end
$var wire 1 Z D0~input_o $end
$var wire 1 [ A0~0_combout $end
$var wire 1 \ D3~input_o $end
$var wire 1 ] A3~0_combout $end
$var wire 1 ^ D1~input_o $end
$var wire 1 _ A1~0_combout $end
$var wire 1 ` F~0_combout $end
$var wire 1 a D6~input_o $end
$var wire 1 b A6~0_combout $end
$var wire 1 c Y7~0_combout $end
$var wire 1 d D7~input_o $end
$var wire 1 e F~1_combout $end
$var wire 1 f D4~input_o $end
$var wire 1 g A4~0_combout $end
$var wire 1 h D5~input_o $end
$var wire 1 i A5~0_combout $end
$var wire 1 j F~2_combout $end
$var wire 1 k Y0~0_combout $end
$var wire 1 l Y1~0_combout $end
$var wire 1 m Y2~0_combout $end
$var wire 1 n Y3~0_combout $end
$var wire 1 o Y4~0_combout $end
$var wire 1 p Y5~0_combout $end
$var wire 1 q Y6~0_combout $end
$var wire 1 r A7~0_combout $end
$upscope $end
$upscope $end
$enddefinitions $end
#0
$dumpvars
0!
1"
0#
0$
0%
0&
1'
0(
0)
0*
0+
0,
0-
0.
0/
00
01
02
03
04
15
06
07
08
09
0:
0;
0<
x=
0>
1?
x@
1A
1B
1C
0D
1E
0F
0G
0H
0I
0J
0K
0L
0M
0N
0O
0P
0Q
0R
0S
0T
0U
0V
0W
0X
0Y
0Z
0[
0\
0]
1^
0_
0`
1a
0b
0c
0d
0e
0f
0g
0h
0i
0j
0k
0l
0m
0n
0o
0p
0q
0r
$end
#10000
1+
1W
0=
1k
1l
1_
1`
0E
1F
1N
05
16
1-
1j
1D
14
#20000
1*
0+
1V
0W
1=
1m
0l
0_
0`
1G
0F
0N
17
06
0-
0j
0D
04
#30000
1+
1W
0=
1n
0m
1H
0G
18
07
#40000
1)
0*
0+
1X
0V
0W
1=
1o
0n
1I
0H
19
08
#50000
1+
1W
0=
1p
0o
1J
0I
1:
09
#60000
1*
0+
1V
0W
1=
1q
0p
1b
1e
1K
0J
1S
1;
0:
12
1j
1D
14
#70000
1+
1W
0=
0q
1c
0b
0e
0K
1L
0S
0;
1<
02
0j
0D
04
#80000
0)
0*
0+
0X
0V
0W
1=
0k
0c
1E
0L
15
0<
#90000
1+
1W
0=
1k
1l
1_
1`
0E
1F
1N
05
16
1-
1j
1D
14
#100000
1*
0+
1V
0W
1=
1m
0l
0_
0`
1G
0F
0N
17
06
0-
0j
0D
04
#110000
1+
1W
0=
1n
0m
1H
0G
18
07
#120000
1)
0*
0+
1X
0V
0W
1=
1o
0n
1I
0H
19
08
#130000
1+
1W
0=
1p
0o
1J
0I
1:
09
#140000
1*
0+
1V
0W
1=
1q
0p
1b
1e
1K
0J
1S
1;
0:
12
1j
1D
14
#150000
1+
1W
0=
0q
1c
0b
0e
0K
1L
0S
0;
1<
02
0j
0D
04
#160000
0)
0*
0+
0X
0V
0W
1=
0k
0c
1E
0L
15
0<
#170000
1+
1W
0=
1k
1l
1_
1`
0E
1F
1N
05
16
1-
1j
1D
14
#180000
1*
0+
1V
0W
1=
1m
0l
0_
0`
1G
0F
0N
17
06
0-
0j
0D
04
#190000
1+
1W
0=
1n
0m
1H
0G
18
07
#200000
1)
0*
0+
1X
0V
0W
1=
1o
0n
1I
0H
19
08
#210000
1+
1W
0=
1p
0o
1J
0I
1:
09
#220000
1*
0+
1V
0W
1=
1q
0p
1b
1e
1K
0J
1S
1;
0:
12
1j
1D
14
#230000
1+
1W
0=
0q
1c
0b
0e
0K
1L
0S
0;
1<
02
0j
0D
04
#240000
0)
0*
0+
0X
0V
0W
1=
0k
0c
1E
0L
15
0<
#250000
1+
1W
0=
1k
1l
1_
1`
0E
1F
1N
05
16
1-
1j
1D
14
#260000
1*
0+
1V
0W
1=
1m
0l
0_
0`
1G
0F
0N
17
06
0-
0j
0D
04
#270000
1+
1W
0=
1n
0m
1H
0G
18
07
#280000
1)
0*
0+
1X
0V
0W
1=
1o
0n
1I
0H
19
08
#290000
1+
1W
0=
1p
0o
1J
0I
1:
09
#300000
1*
0+
1V
0W
1=
1q
0p
1b
1e
1K
0J
1S
1;
0:
12
1j
1D
14
#310000
1+
1W
0=
0q
1c
0b
0e
0K
1L
0S
0;
1<
02
0j
0D
04
#320000
0)
0*
0+
0X
0V
0W
1=
0k
0c
1E
0L
15
0<
#330000
1+
1W
0=
1k
1l
1_
1`
0E
1F
1N
05
16
1-
1j
1D
14
#340000
1*
0+
1V
0W
1=
1m
0l
0_
0`
1G
0F
0N
17
06
0-
0j
0D
04
#350000
1+
1W
0=
1n
0m
1H
0G
18
07
#360000
1)
0*
0+
1X
0V
0W
1=
1o
0n
1I
0H
19
08
#370000
1+
1W
0=
1p
0o
1J
0I
1:
09
#380000
1*
0+
1V
0W
1=
1q
0p
1b
1e
1K
0J
1S
1;
0:
12
1j
1D
14
#390000
1+
1W
0=
0q
1c
0b
0e
0K
1L
0S
0;
1<
02
0j
0D
04
#400000
0)
0*
0+
0X
0V
0W
1=
0k
0c
1E
0L
15
0<
#410000
1+
1W
0=
1k
1l
1_
1`
0E
1F
1N
05
16
1-
1j
1D
14
#420000
1*
0+
1V
0W
1=
1m
0l
0_
0`
1G
0F
0N
17
06
0-
0j
0D
04
#430000
1+
1W
0=
1n
0m
1H
0G
18
07
#440000
1)
0*
0+
1X
0V
0W
1=
1o
0n
1I
0H
19
08
#450000
1+
1W
0=
1p
0o
1J
0I
1:
09
#460000
1*
0+
1V
0W
1=
1q
0p
1b
1e
1K
0J
1S
1;
0:
12
1j
1D
14
#470000
1+
1W
0=
0q
1c
0b
0e
0K
1L
0S
0;
1<
02
0j
0D
04
#480000
0)
0*
0+
0X
0V
0W
1=
0k
0c
1E
0L
15
0<
#490000
1+
1W
0=
1k
1l
1_
1`
0E
1F
1N
05
16
1-
1j
1D
14
#500000
1*
0+
1V
0W
1=
1m
0l
0_
0`
1G
0F
0N
17
06
0-
0j
0D
04
#510000
1+
1W
0=
1n
0m
1H
0G
18
07
#520000
1)
0*
0+
1X
0V
0W
1=
1o
0n
1I
0H
19
08
#530000
1+
1W
0=
1p
0o
1J
0I
1:
09
#540000
1*
0+
1V
0W
1=
1q
0p
1b
1e
1K
0J
1S
1;
0:
12
1j
1D
14
#550000
1+
1W
0=
0q
1c
0b
0e
0K
1L
0S
0;
1<
02
0j
0D
04
#560000
0)
0*
0+
0X
0V
0W
1=
0k
0c
1E
0L
15
0<
#570000
1+
1W
0=
1k
1l
1_
1`
0E
1F
1N
05
16
1-
1j
1D
14
#580000
1*
0+
1V
0W
1=
1m
0l
0_
0`
1G
0F
0N
17
06
0-
0j
0D
04
#590000
1+
1W
0=
1n
0m
1H
0G
18
07
#600000
1)
0*
0+
1X
0V
0W
1=
1o
0n
1I
0H
19
08
#610000
1+
1W
0=
1p
0o
1J
0I
1:
09
#620000
1*
0+
1V
0W
1=
1q
0p
1b
1e
1K
0J
1S
1;
0:
12
1j
1D
14
#630000
1+
1W
0=
0q
1c
0b
0e
0K
1L
0S
0;
1<
02
0j
0D
04
#640000
0)
0*
0+
0X
0V
0W
1=
0k
0c
1E
0L
15
0<
#650000
1+
1W
0=
1k
1l
1_
1`
0E
1F
1N
05
16
1-
1j
1D
14
#660000
1*
0+
1V
0W
1=
1m
0l
0_
0`
1G
0F
0N
17
06
0-
0j
0D
04
#670000
1+
1W
0=
1n
0m
1H
0G
18
07
#680000
1)
0*
0+
1X
0V
0W
1=
1o
0n
1I
0H
19
08
#690000
1+
1W
0=
1p
0o
1J
0I
1:
09
#700000
1*
0+
1V
0W
1=
1q
0p
1b
1e
1K
0J
1S
1;
0:
12
1j
1D
14
#710000
1+
1W
0=
0q
1c
0b
0e
0K
1L
0S
0;
1<
02
0j
0D
04
#720000
0)
0*
0+
0X
0V
0W
1=
0k
0c
1E
0L
15
0<
#730000
1+
1W
0=
1k
1l
1_
1`
0E
1F
1N
05
16
1-
1j
1D
14
#740000
1*
0+
1V
0W
1=
1m
0l
0_
0`
1G
0F
0N
17
06
0-
0j
0D
04
#750000
1+
1W
0=
1n
0m
1H
0G
18
07
#760000
1)
0*
0+
1X
0V
0W
1=
1o
0n
1I
0H
19
08
#770000
1+
1W
0=
1p
0o
1J
0I
1:
09
#780000
1*
0+
1V
0W
1=
1q
0p
1b
1e
1K
0J
1S
1;
0:
12
1j
1D
14
#790000
1+
1W
0=
0q
1c
0b
0e
0K
1L
0S
0;
1<
02
0j
0D
04
#800000
0)
0*
0+
0X
0V
0W
1=
0k
0c
1E
0L
15
0<
#810000
1+
1W
0=
1k
1l
1_
1`
0E
1F
1N
05
16
1-
1j
1D
14
#820000
1*
0+
1V
0W
1=
1m
0l
0_
0`
1G
0F
0N
17
06
0-
0j
0D
04
#830000
1+
1W
0=
1n
0m
1H
0G
18
07
#840000
1)
0*
0+
1X
0V
0W
1=
1o
0n
1I
0H
19
08
#850000
1+
1W
0=
1p
0o
1J
0I
1:
09
#860000
1*
0+
1V
0W
1=
1q
0p
1b
1e
1K
0J
1S
1;
0:
12
1j
1D
14
#870000
1+
1W
0=
0q
1c
0b
0e
0K
1L
0S
0;
1<
02
0j
0D
04
#880000
0)
0*
0+
0X
0V
0W
1=
0k
0c
1E
0L
15
0<
#890000
1+
1W
0=
1k
1l
1_
1`
0E
1F
1N
05
16
1-
1j
1D
14
#900000
1*
0+
1V
0W
1=
1m
0l
0_
0`
1G
0F
0N
17
06
0-
0j
0D
04
#910000
1+
1W
0=
1n
0m
1H
0G
18
07
#920000
1)
0*
0+
1X
0V
0W
1=
1o
0n
1I
0H
19
08
#930000
1+
1W
0=
1p
0o
1J
0I
1:
09
#940000
1*
0+
1V
0W
1=
1q
0p
1b
1e
1K
0J
1S
1;
0:
12
1j
1D
14
#950000
1+
1W
0=
0q
1c
0b
0e
0K
1L
0S
0;
1<
02
0j
0D
04
#960000
0)
0*
0+
0X
0V
0W
1=
0k
0c
1E
0L
15
0<
#970000
1+
1W
0=
1k
1l
1_
1`
0E
1F
1N
05
16
1-
1j
1D
14
#980000
1*
0+
1V
0W
1=
1m
0l
0_
0`
1G
0F
0N
17
06
0-
0j
0D
04
#990000
1+
1W
0=
1n
0m
1H
0G
18
07
